:0C10F000EA000000FF0E0C0A07050402D5
:1A010000FC33C08ED08ED88EC0BC9C01BF9C01B90D00F3ABB402ABC606A5F9
:1A011A000110B017E6F5BE4107BAF0002EAC8AC8E3052EACEEE2FB4280FAF3
:1A013400FB76EFE4FF241874103C087426A808B00E7402B005E6FAEB1AE86A
:1A014E000C00BEF50FE80200EBFB2EACE6FAE80000E897003C0D7401C3BF98
:1A0168001801C6050DE4FFA8017403E91207BE6307E88D00FC33C08ED88E07
:1A018200C0BC9C01C7066400BF068C0E6600B03EE8CA00E82000E8810074CF
:1A019C00DF8A0524DF2C4272103C13730C47D0E098932EFF977401EBC7E924
:1A01B600B502BF180133C9E839003C20721B3C7F740EE894003C407425AA22
:1A01D0004183F95076E7E3E54F49E82900EBDE3C0874F33C0D75D6AABF18B1
:1A01EA0001B00DE86F00B00AEB6BE8F4FFEB83FAE4F7A80274F9E4F6247F24
:1A020400FBC3BE85072EACE85100D0E073F7C3E80600823D2C750A47B02079
:1A021E0051B1FFF3AE4F59823D0DC38CDAB400E8780003D6EB098CC2B400A4
:1A023800E86D0003D782D400E812008AC6E802008AC28AE051B104D2E85924
:1A025200E802008AC4240F04902714402750E4F7240174FA58E6F6C3B0206C
:1A026C00EBF1E8F9FFE2FBC388076C0309028C0393026E066C0350066C0347
:1A0286006C036C0366026C035D066C036C033304B6026E058AC2240FE80798
:1A02A000008AD08AC632F6C3D1E2D0D4D1E2D0D4D1E2D0D4D1E2D0D4C3B9D7
:1A02BA000500E827015052E84FFF823D4C7421823D6C741CBA8000E830018F
:1A02D400721BB90500E80A018BCA5A5B2BCA1AE7751D9341EB0B47B9040072
:1A02EE00E8F5008BCA5A588BDA81E30F00E30403D973997497B85247E927FF
:1A03080003E8ADFF50E856011F8BF2E813FF56E850FFACE82CFF5A497417A5
:1A0322008BC6A80F740C52A80775EAB02DE82DFFEBE6E80200EBDA518BC6C6
:1A033C008BF22BC28BD8D1E003C3B933002BC8E820FF8BCBAC247F3C7F74A9
:1A035600043C207302B02EE8FFFEE2EE59E985FEE850FF51508BF2B905004D
:1A037000E87300E8F000E821FF8BFA5B8EDB8EC0593BFE1BC372074903F17B
:1A038A0003F9FD41A449F3A4C3E823FF515052E8BC005F07593BD9BE18018D
:1A03A400E30273E62BCB87D957F3A45E8BCB061FEBD8E800FF515052E899C6
:1A03BE00004B5F07592BCBBE1801ACAEE0FD75C45387CB57F3A68BCB5F5B39
:1A03D80075084FE856FE47E809FEE3AEEBDFE82AFE33D28AE6E81400727B04
:1A03F2008AD04749E80B007297E370E8A8FE0AD0EBF08A053C41720224DFF2
:1A040C002C3072823C0AF5730B24DF2C073C0A72033C10F5C3E8EFFDE8DD3F
:1A042600FF720BB90200E8B7FF881743F8C38A053C2774063C227402F9C34E
:1A0440008AE0478A05473C0D74233AC475053A2575E047880743EBEBBB184D
:1A045A0001E8C3FF73FB81EB18017407E8B3FD7502C34F81EF17018BCFE884
:1A047400F8FDBE7C07E88DFDE9FDFCE8D6FF5F07BE18018BCBF3A4C3B9057C
:1A048E0000E854FFE805FE82EC0880C6805052E87CFD75DD5F07E88DFDE8DD
:1A04A800C0FD268A05E89AFDB02EE8AAFDB90200BA0000E83BFD8AE0E849AC
:1A04C200FF86E0720CE895FD8AF28AD4E2EBE826FD3C0874193C7F74153CC0
:1A04DC002D744D3C0D742F3C207431B007E873FDE3E2EBCB82F90274C6FEEC
:1A04F600C18AD68AF5E808FDEBBB82F902740B51B104D2E6590AD626881503
:1A05100047C3E8EBFFE9D3FCE8E5FF4141E84EFD8BC724077584E8C2FCE9B7
:1A052A0078FFE8D1FF4F4FEBF3E8DDFC74628A15478A3582FE0D747647E82A
:1A05440020FF82FE20746DBFE506920E07B90E00F2AF753C0BC975064F4FA6
:1A055E002E8B45FEE8FAFC8AC4E8F5FCE8FDFC1E078D9DB5FA8B17E8CBFC52
:1A057800E870FCB03AE8DFFCE835FCE896FC740BB90400E85BFEE8D5FE8914
:1A05920017C3B84252E99600BEE506BB9C01B90800E86500E842FCB90500B7
:1A05AC00E85C00E8B8FCE89300E933FC82FA4675D7E88800B02DE89AFCE801
:1A05C600F0FBE851FC33DB8B16B6018BF7AD3C0D746682FC0D7466BF010717
:1A05E000B920000E07F2AF755A8AE980E10FB80100D3C085C375330BD80B96
:1A05FA00D0F6C510750233D08BFE1E07E80AFCEBC62EADE84FFC8AC4E84AF7
:1A061400FCB03DE845FC8B174343E822FCE846FCE843FCE2E2C3B84446E88A
:1A062E000E00E82CFC8AC4E827FCBE7D07E93BFE8916B601C3B84246EBE5AE
:1A064800BE0107B910008B16B6012EADD1E272042E8B441E0BC0740BE8FC64
:1A066200FB8AC4E8F7FBE8FFFBE2E5C3E8A2FBE890FDBA01007206B9040005
:1A067C00E867FD89160201E8E0FDC70600010000800EB70101C7060C00D5EE
:1A069600058C0E0E00C7060400DC058C0E0600FAC7066400DC058C0E66003F
:1A06B000BC9C01585B595A5D5D5E5F0707178B26A401FF36B601FF36B201AB
:1A06CA00FF36B4018E1EAC01CFEBB187ECFF4E0087EC2E8926A4112E8C16D3
:1A06E400B01133E48ED4BCB001061E5756554C4C52515350161F8B26A401C6
:1A06FE008E16B0018F06B4018F06B2015880E4FEA3B6018926A4011E071E50
:1A07180017BC9C01C7066400BF06B020E6F2FBFCE8C0FAE86CFEFF0E0201BE
:1A073200759FBE04018B0E0001E3108B5414AD50E855FB8EC08BFA58AAE26A
:1A074C00F0E92CFAB90400E890FCECE8F0FAE98EFAB90400E883FC52B90203
:1A07660000E87CFC925AEEC3BB180133F6E89DFA7419B90500E868FC8917C9
:1A0780008867ED43434683FE0B75E8B84250E99FFE89360001E8CEFC8BCE33
:1A079A00E31ABE04018B5414ADE8F4FA8ED88BFA8A05C605CC061F8844FE0F
:1A07B400E2E9C70602010100E9D2FE50B020E6F2E4F6247F3C137503E82A88
:1A07CE00FA3C03740258CFB05EE885FAB043E880FAE809FAE997F941584232
:1A07E800584358445853504250534944494453455353534353495050430073
:1A080200000000000000004F56444E454900004E475A520000414300005002
:1A081C00450000435900000000000000004E56555044490000504C4E5A00C7
:1A083600004E410000504F00004E4301190410020FFD011904180109FD026E
:1A085000F384000004B777CE370004B7774E37010F010E0D0A0A53435020E3
:1A086A0038303836204D6F6E69746F7220312E390D8A5E204572726F720DB2
:1A0884008A08208857E4FFA8047403E90F00BEDD08BF8000B928002EF3A542
:1A089E00E9DF08FABEA608E861F9BE50001E0E1FB8E00126890426C64402F1
:1A08B80000BE6D08BFE001B91000F3A4E65433C9E2FE1FBEE001B202C74460
:1A08D2000B050033C9E87700A804E0F9740EFECA75F1FBBE7D08E81EF9E946
:1A08EC00A4FFBEC908E815F9BEE001C7440B0400E8520075E3C6440B00C6A4
:1A0906000410C74401FFFFC744040002C744070000C744090001B90300E8DD
:1A0920002F00C60400C744010000E0F375B65FC706B2010000C706B4010059
:1A093A0002E4FFA8017503E92AFEFF36B201FF36B4018E1EAC01CFB311517D
:1A09540033C9C6440C00E6558A440C0AC0E1F97504FECB75F3593CFFC300BD
:1A096E000000DC000000001E00070400E0010048617264206469736B2065BA
:1A09880072726F722E20496E7365727420626F6F74206469736B20696E2017
:1A09A200413A0D8A0D0A52656164696E672068617264206469736B2C207012
:1A09BC006C6561736520776169742E0D8A48617264206469736B2069732017
:1A09D60072656164790D8AE4FFB103D2C024108AF8B0D0E6E0B90500D40A9A
:1A09F000E2FC80F7088AC7E6E4B008E6E0E4E5BF0002B001E6E2BAE300B0A7
:1A0A0A008CE6E0EB01AAE4E5D0D8EC73F8E4E0249C75D5C706B2010000C70D
:090A240006B40100025FE99EF531
:0000000000
