:20800000C095B3C095F8C0880BC08822C086690818828020F800302C58D5868D01000000C8
:20802000C08838C0883EC08844C08845BA48D5D3BFE28673967383A693B646B346A39F30B1
:208040002FD3BFE296B386A31242B602A69F3041D343ADF800BD4DED3050819E81A6822629
:2080600081E381F681DA8493825080F28460810985B981D981D984BF81D981D982CD82DE69
:20808000830E82808323855381D9843B837883D783B383A483A7841E8472847F859881BCE5
:2080A000826E8354835781D981D981CF81CB8255824B824881D9F880BAF81CAA1A1A1AC405
:2080C000C4C4C4C4F8FFB2A2F80052023AD6F8FF5202FDFF32DC92FCFFB230C8EDF800BDBB
:2080E000F823AD827392732A2A0A738DFB123AE8F6C8FF00F8F7A3F880B3D3B4B5B7F8309C
:20810000A4F842A5F851A73320D720BB4DABF8005B1B5BD7168BF4BFD7249F739B7C007364
:20812000D722B24DA2D72682739273D482D4D71EB94DA9E249FF303351FDD7338BFEFCB6C0
:20814000A6F833222273937397B6465246A6F0B6D5FF103B70A6FA1F32625289F473997CE1
:208160000038737386F6F6F6F6FAFEFC5AA63048FC08FA07B649A6338089739973D4823E1E
:20818000D71E86F4A9962D74B93033FD0752D71AADE2F4A69DB60D52065D0256303386FFAF
:2081A00020A6967F003896C28286B986A930331B0BFF2032AFFF10C7FD090BD5D481CB4DB2
:2081C000AD9A5D1D8A5D30CFD481CBD481CFBAD71A2DFC015DAD2D4DAAD5D481B0FB0D329D
:2081E0003330A6D481B0FF413BA6FF1A33A61B9FFED482603033D481B03BA6F800BAAAD477
:20820000825B4BFA0FAAF800BAF80AAFED1D8AF4AA9A2D74BA2F8F3A0D9A5D1D8A73D4818E
:20822000B03302C081339BBA8BAAD481B01B5249F3322AFB8032239ABB8AABC081A6D72415
:2082400082F52D92753386D549306049BA49305CD4853C305CD481CBD4825B8AD482609A68
:2082600052D719F73386F801F55DAD025DD5D481CFAD4DBA4D305CFB2F326DFB22D482FEF5
:208280004BFB0D3A7729D718B8D482D4F821D482FED71E89F7AA992D77BAD483209832B06C
:2082A000F8C5A993B9D482CDD728BA4DAAD48320F807D40009D482DED71AF8005DD726B2BD
:2082C0004DA2C0812E20415420A3D482FC49FC803BCA30FCD719F88073F8007373C8D71B0D
:2082E000FE336DD715AAF80DD40009D71A8AFE32F92AF800C7F8FF30E873F88AFF80BFD7C2
:208300001B2DFC81FC80CB826D5D9FC00009D71BFA07FD08AA8A32A3F820D482FE2A3015C1
:20832000D4825BD71AADD484233B30F82DD482FEF80073BAF80AD4825C1DD483F18AF6F9D8
:2083400030731D4DEDF12D2D3A3A1202C281C8D482FE304AD72E389BFB003A6A8B52F0FF34
:2083600080336AD72E8B739B5DD5D72EB80DA88B739B5D98BB88ABD5D481CB9AFB80738A1B
:2083800073D481CFAFD481CB128AF7AA129AFB8077523B9E8AF1329B8FF6388FF6388FF62A
:2083A000C7C419D5D4841ED481CBED1D8AF4739A745DD5D481CBF810AF4DB80DA80DFE5D7A
:2083C0002D0D7E5DD484343BD1ED1D88F47398745D2F8F1D3ABDD5D481CB9A528AF1C2821C
:2083E000860DF373D484232D2DD484231DF80030F4F80073AABAF811AFED8AF7522D9A7776
:20840000CB8406BA02AA1D1D1DF07E73F07E738A7ED484362F8FCA83F91202FE3B33D71A7D
:20842000AD3028EDF0FE3B331DF800F773F800775DFF00D58AFEAA9A7EBAD5D718C282B80B
:208440004BFB0D3A40D485AF325DD4800C3358D71CB94DA9D7175DD5D71EB94DA9C082869F
:20846000D720BB4DABD485AF325DD71C8973995D3054D48515324AD7288A739A5D305DD414
:20848000849D42BA02AAD72682739273D485183A77309AD4849D42B902A9C08133D7221216
:2084A0001282FC02F32D3AAE927C00F3325D12D5D71630B6F800FED71AF800765D30C7F837
:2084C00030ABD4825B9DBBD40006FA7F32C752FB7F32C7FB7532B0FB1932B4D71302F3324A
:2084E000EC2D02F33AF22B8BFF3033C7F830ABF80D38025BD7198BF7CB8502F807D482FEDF
:208500000B384BFB0DCA84C7D482DED7188B5DF830ABC081CBD481CB8A529AF1C28286D79E
:2085200020BB4DABD485AFC68DD5ED8AF5529A2D75E2F133294BFB0D3A353024D4853FD48D
:2085400081CB4DB84DA84DB64DA68D52D719025DAD8AD5D72C8B739B5DD48515D72A8B733F
:208560009B73D485152B2BD72A8BF72D9B7733924BBA4BAA3A799A3292D48320F82DFB0DF3
:20858000D482FED4800C33924BFB0D3A7ED482DE3067D72CBB4DABD5D7268273925DD71831
:2085A0002DCED728AA4D1212E2738A73C08133D7274B5D1D4B73F11DD5D4836AD48515FC51
:2085C000FFF800AF33D29BBD8BAD2F2F2F4DFB0D3ACC2B2BD4836AD7280BFB0D735D32F15C
:2085E0009A5D1D8A5D9BBA8BAA1F1F1F4AFB0D3AEBD72EBA4DAAD7248AF7AA2D9A77BA1D31
:208600008FF4BF8FFA80CEF8FF2D74E273B89F735282F598529275C382858F324852FE3B72
:2086200036D72EBF4DAFE2F7A89F7C00B8485F1F1A9A3A2D30489FAF98BFD724B84DA82A20
:20864000EF0828731A9A3A41D724124273025DD72EBA4DAAD728AFF132668F5A1A4D5A1A87
:208660004B5AFB0D3A5FC082BDFC009EFEF632803E863672875222D48E511202A7FF00D5CC
:2086800036863E8230743F8CFF00378AD5243A912710E159C32A562C8A474F54CF30D01038
:2086A00011EB6C8C474F5355C230D01011E014168B4C45D4A080BD30D0E0131D8C50D2838D
:2086C000494ED4E16285BA3853385583A2216330D02083AC226284BBE1674A83DE2493E050
:2086E000231D9149C630D0311F30D084544845CE1C1D380B9B49CE835055D4A010E7243FF3
:20870000209127E15981AC30D0131182AC4DE01D8A5245D4835552CEE0151D85454EC4E0C3
:208720002D875255CE1011380A844E45D72B9F4C4953D4E70A00010A7FFF6530D030CBE07F
:20874000240000000000000A801F2493231D845245CD1DA080BD382A82AC620B2F85AD30E5
:20876000E6176481AB30E685AB30E6185A93AD30E6195430F585AA30F51A5A85AF30F51B7A
:20878000542F88524E44A8311539448E555352A830D030CB30CB311C2E2FA2122FC12F805C
:2087A000A86530D00B80AC30D080A92F84BD09022F833CBE74853CBD09032F84BC09012F7F
:2087C000853EBD09062F853EBC09052F80BE09042F19170A00011809800980120A09291AD8
:2087E0000A1A85180813098012030102316A31751B1A193175182F0B010501040B01070156
:20880000062F0B09060A00001C172F9B52228B5222D48846D48A5D8BFEF6BF1242AB02BB38
:208820009FD58B52229FAB3233FE33339FABD48A5D8BBF1202AB9FD58873736064D56CF8C5
:2088400000BAF0D5D5D59EFF81329D9EFF80C289109E32C29D52228D5222F800BDABF80886
:20886000ADF800F68EF63E66FF013A688EFF013A6D8B3678F980307AE2E2AB2D8D328C8B90
:20888000F6AB8EAEFF07FF013A8630718EF6FF013A8E1202AD1202BDD4D33DD5D5369DF85D
:2088A000FFAB8E3EA3F6388EFF013AA836AF38F68B76ABC388A78EFF013AB78B8BD4D33DD7
:2088C000D5D59D52228D5222F800BDABF808ADF800F68EF636D4FF013AD68EFF013ADB8B15
:2088E0003EE6F98030E8E2E2AB2D8D32FA8BF6AB8EAEFF07FF013AF430DF8EF6FF013AFC09
:208900008EFF013A011202AD1202BDD4D33DD5D53E10F8FFAB8E3616F6388EFF013A1B3E55
:208920002238F68B76ABC3891A8EFF013A2A8B8BD4D33DD5D5F808AF8B52228D52222E7AE8
:20894000C4C48B76ABABC4334B305E30762F8F328E8EFF01325EC4C4C4C4C4E230527A8BE9
:2089600076ABCB894D2F8F328E8EFF013276C4C4C4C4C4E2306A7B8B76ABC389652F8F3269
:208980008E8EFF01325EC4C4C4C4C4E230828E8E8E7BC4C4C4C4C4E2FF013A911202AD124A
:2089A00002ABF802AED58B52228F5222F808AF2E7BC4C48B76ABABC433BC30CF30E72F8FCD
:2089C00032FF8EFF0132CFC4C4C4C4C4E230C37B8B76ABCB89BE2F8F32FF8EFF0132E7C49B
:2089E000C4C4C4C4E230DB7A8B76ABC389D62F8F32FF8EFF0132CFC4C4C4C4C4E230F38E4D
:208A00008E8E7AC4C4C4C4C4E2FF013A021202AF1202ABF802AED5D488468BFF0D3A25F83F
:208A200000BBC08A5C8BFF20CA8A31F801BBC08A5C8BFF1B3A3BF802BB305C8BFCD03B5906
:208A40008BFCC6334AF803BB305C8BFCBF3B598BFCB93359F804BB305CF8FFBBD59EFF817C
:208A6000C289359EFF80C289A69E32AB8B52228D5222F880ADF800F68EAF2F2F8F7AFF0136
:208A80003A7E8BF633897A308B7BE2AB8DF6AD32978EFF07E2307E8EFF04FF013A9A7B8E19
:208AA000FF0133A01202AD1202ABD58B52228D5222F880ADF800F68EAF2F2F8F7BFF013A9C
:208AC000BD8BF633C87B30CA7AE2AB8DF6AD32D68EFF07E230BD8EFF04FF013AD97A8EFF9B
:208AE0000133DF1202AD1202ABD5D48D899BFF0132F5C096B69A738A73D48D899ABC8AACD6
:208B00001202AA1202BA9BFF00320EC096B69C738C73608AF5AC609A75BC3B25F800BB9C70
:208B2000528CF13A28F8FFBBD48D619AA7D48E0E8AA7D48E0EF800A80AB8A7D48E08983201
:208B40004CFF60325898FF68325F3066F89BB9F8CAA9F800A8C08C51F89CB9F84A3051F8BE
:208B60009CB9F853305198F6F6F6F6AF32B12F8F32BD2F8F32C42F8FC28C1D2F8F32CB2F5E
:208B80008F32D22F8FC28C042F8FC28C252F8F32D92F8F32E02F8F32E72F8F32EE2F8FC233
:208BA0008C2C2F8F32F52F8F32FC2F8FC28C3430B6F89BB9F8CEA9F880A8C08C51F89BB942
:208BC000F8D430B6F89BB9F8DA30B6F89CB9F83E30B6F89CB9F84430B6F89CB9F8B230B62A
:208BE000F89CB9F8B830B6F89CB9F8BE30B6F89CB9F8C430B6F89DB9F81E30B6F89DB9F82A
:208C000024C08BB698F6F6F6F63314F89CB9F84EA9C08BB6F89CB9F862A9C08BB6F89BBD9A
:208C2000F80AAD303CF89BBDF83A3022F89BBDF86AAD3022F89BBDF89AAD302298FA0FAF63
:208C40008F32491D1D1D2F30400DB91D0DA91D0DA8883A60D48DD699B789A7D48D7430C605
:208C6000FE3B82D48DD699B789A7D48D7498FAF0FF60327B98A7D48DFB30C698A7D48DEE00
:208C800030C688FA03A828883AA22C1A0AA7D48E0ED48DDB99B789A7D48D740AA7D48E0E0C
:208CA00030C61A2C2C0AA7D48E0E1A0AA7D48E0E2AD48DE099B789A7D48D740AA7D48E0E0F
:208CC0001A0AA7D48E0E1A9B32D9D488468BFF1BC296B6F8FFBBC08B282C9CFE33FC9EFE8E
:208CE000F632ED3EF336E5D48E51C096B636F33EEF30E73FF937F530E7C08B28D48D61C077
:208D00008E67F89EB7F877A73030F897B7F821A73030F897B7F86DA73030F89DB7F875A723
:208D20003030F89DB7F88BA73030F89DB7F8AEA7D48D74D5D488468BFAC03A428BFF30BBE2
:208D400030468BFF37BB9BFEFEFEFEBBD488468BFAC03A598BFF30305C8BFF37529BF4BBB6
:208D6000D5F820ABD48A5DF80DABD48A5DF80AABD48A5DD597738773073282ABD48A5D17BC
:208D800030781202A71202B7D5F800BAAAD48A179BFFFF328D9B32D59BFF0132D29BFF02CA
:208DA00032D5D48A5D9BFF033AAF8BFA0F30B48BFA0FFC09528AFEAA9A7EBA8AFEAA9A7EBA
:208DC000BA8AFEAA9A7EBA8AFEAA9A7EBA8AF4AA308DD48A5DD5F805A730E3F803A730E3F0
:208DE000F801A7F820ABD48A5D27873AE3D597738773F820B787FA07C08E0597738773F80B
:208E000052B787FA0FA7302FF820ABD48A5D9773877387FAF0F6F6F6F6B787FA0FA797FC67
:208E2000F6332997FC30B7302F97FF09FC40B787FCF6333A87FC30A7304087FF09FC40A753
:208E400097ABD48A5D87ABD48A5D1202A71202B7D5F80CA78EFF01335527873A54D5F8976C
:208E6000B7F86DA7D48D74D48D61F83EABD48A5DC096BFD48D89F800BF9BFF013281C096A2
:208E8000B69A738A73D48D899ABC8AAC1202AA1202BA9BFF00329AC096B69C528CF1C296DB
:208EA000B6D48D619AA7D48E0E8AA7D48E0E0AA7D48E089EFEF632C23EC836BAD48E51C0DE
:208EC00096B636C83EC430BC3FCE37CA30BC1A2C9C528CF132DD8AFA0F32A130AE3067D4F1
:208EE0008D899BFF0132EAC096B69AB88AA8D48D899BFF0132F9C096B69AB98AA9D48D89E9
:208F00009B3206C096B69A528AF1C296B6085918192A9A528AF13A0DC08E67D48D899BFF5A
:208F2000013226C096B69AB98AA9D48D899BFF0132389B323DC096B68A5919302A8A59C048
:208F40008E67D48D61F89EB7F82BA7D48D74F800B9F800B8B7A7A8A9D488468BFF1BC296BF
:208F6000B68BFF3A3A58D48D349BA75297F4B7D48D349BB85297F4B7D48D349BA85297F449
:208F8000B7D48D349BA95297F4B789FAFE3292F802B98732A7D48D34993A9E9B58189B5257
:208FA00097F4B727873A9297FBFFFC01B7D48D349B5297F732B9F801B9893251FF0132C203
:208FC0003051F89DB7F8D9A79932E7F89DB7F8C8A799FF0132E7F89DB7F8B2A799FF0232CC
:208FE000E7F89EB7F80EA7D48D74C08E67D48D899BFF0132F8C096B69AB88AA8D48D899B42
:209000003205C096B69AB98AA9995289F1C296B6D48D67F89EB7F85FA7D48D74F8FF52647F
:2090200022F803B7F803BD2D37339D3A2727973A243036C096B6F800B7BAF820AA995289E2
:20904000F1C29105993A5389FAE03A53F801BA89AA3056F800BA997389528AF5A912F8007A
:2090600075B9F83A526422F83AABD48A5D8AA7D48E0E8A5297F4B7642298A7D48E0E985242
:2090800097F4B7642288A7D48E0E885297F4B764229AA7D48E0E9A5297F4B7642208A7D4DF
:2090A0008E0E085297F4B76422182A8A3A9D97FBFFFC01B797A7D48E0E97526422D48D6725
:2090C0009AFF013A36F8FF526422F880B72737F99EFEF632D936F930DB3EF9973ACDF8008D
:2090E000526422F880B72737F99EFEF632F236F930F43EF9973AE630C5F89DB7F8F4A7D473
:209100008D74C08E67F800B7AAF801BAF83A526422F83AABD48A5D8AA7D48E0E8A5297F4E3
:20912000B7642298A7D48E0E985297F4B7642288A7D48E0E885297F4B764229AA7D48E0E9F
:209140009A5297F4B7642297FBFFFC01B797A7D48E0E97526422D48D67C090C5D48D02D4E5
:2091600088468BFF1BC28CE78BFF4332748BFF573289305FF880B0F8B6A0F800B9F800A9E1
:20918000F8005919893A80308FF880B0F8F2A0D48A5DD48D67F80EA9AAF880B9F800BA09E9
:2091A0005A292A89FBFF3A9FE0D0F880B7F81CA707B81707A898A72787B7F824A707B91749
:2091C00007A99973895288F5A9129875B9D48D67F89EB7F85FA7D48D74F8FF526422F80348
:2091E000B7F803BD2D37F19D3AE427973AE1C0920EC096B6D39ABC8AAC128CF5AC229C75DA
:20920000BCCB91F41F9C52128C5222C091F5F891B0F8F5A0F800A7BDADB9A908B61808A628
:20922000185296F432C28652229652F827BAF810AAF800AFD08FA70212F4223277F803BAA4
:20924000F8E8AAF800AFD08FBD0212F4223277F800BAF864AAF800AFD08FAD0212F4223227
:2092600077F800BAF80AAAF800AFD08FB90212F42232771202A92212873A869D3A8D8D3A24
:2092800094993A9B30A287F930ABD48A5D9DF930ABD48A5D8DF930ABD48A5D99F930ABD45B
:2092A0008A5D89F930ABD48A5DF820ABD48A5D08ABD48A5D0818FF0D3AAFF80AABD48A5D46
:2092C0003014F830ABD48A5DF80DABD48A5DC090C5F880B7F81CA707B81707A8D48D61F813
:2092E0009EB7F82BA7D48D74F89EB7F843A7D48D74D48A178BFF0D32FCC096B698B788A7B2
:20930000F800B8A8B9A9BAAABCACBDADD488468BFF0A320C8BFF2032258BFF0D32258BFA75
:209320000F731A300C8AC2930C1272BA2A8A324572A92A8A324572B92A8A324572A82A8A97
:20934000324572B82A229AAD89AA3256F80A528DF4AD2A8A3A4F99AA326DF80073F8645264
:209360008DF4AD129D74BD222A8A3A601288AA3284F80373F8E8528DF4AD129D74BD222A7B
:209380008A3A771298AA329BF82773F810528DF4AD129D74BD222A8A3A8E129D528DF43225
:2093A000BD9D57178D5717C4C4C4C4D488468BFF0A32AB8B5717FF0D3AABC093009D57177F
:2093C0008D5717F880B9F81CA909A82888B8F824A89758188758F89DB7F8D9A7D48D74C088
:2093E0008E67F896B1F815A1F800E0C4C000000000F893B7F8F0A7F8CEA207732782FFBF15
:20940000CA93FAD48D899B3243FF013210C096B69ABD8AADD48D899B321DC096B68AAFBF47
:209420009DBA8DAA8F32439FF6F6F6F6F9E0BF8FFA0F3A3EF8DCA202BA1202AA3046F9D04C
:20944000AF3049F8E0BFF8C4AFF8FFA202A6F8C7A28652129F52128F52F8CBA29A528A1285
:2094600052129E52128E52F8BFA2D48D22F894B1F874A1D1F8DBA202F6F8E0A092B0E07236
:20948000B272A272B372A372B472A472B572A572B672A672B772A772B872A872B972A972D4
:2094A000BA72AA72BB72AB72BC72AC72BD72AD72BE72AE72BF72AFF8C0A07AD0F89AB7F86D
:2094C00094A7D48D74D48D61F89AB8F8B1A882FC1DA9927C00B929F810AAF804AC08ABD40A
:2094E0008A5D182C8CCA94DD1909A7D48E081909A7D48E0EF803ACF820ABD48A5D2C8CCA67
:2095000094F72A8AFA03CA94DAD48D618ACA94DA191919092929ADFA0F59198DFAF0F6F622
:20952000F6F6592929F802AAF804AC08ABD48A5D182C8C3A2B1909AD8DFCF633438DFC3028
:20954000AD30498DFF09FC40ADF820ABD48A5D8DABD48A5DF806ACF820ABD48A5D2C8CCA4C
:2095600095572A8AFA01CA9528F802AAF804AC08ABD48A5D182C8CCA956F1909A7D48E083E
:20958000F805ACF820ABD48A5D2C8C3A832A8AFA03CA956CF89BB7F802A7D48D7482ADF8CC
:2095A000DBA202FA01FC30AB8DA2D48A5DD48D61C08E677100F800BEAE36C6F801BE3EBE75
:2095C0001E36C02E30CC36C61E3EC82E8EFCF833D89EFC80BEF802AEF8FFB4A4F800540453
:2095E0003AEAF8FF5404FDFF32F094FCFFB430DCF8CDA49E54148E54F8FFB4A4F80054049B
:20960000CA960BF8FF5404FDFF321294FCFFB4C095FCE43025E2227384739473F8007E7325
:209620007912C095F8737373738F739F738E739E738D739D738C739C738B739B738A739A9F
:20964000738973997388739873877397738673967385739573737383739373827392738126
:2096600073917380739054F8FEA44254F8DBA44254F8E4A44254144254F8FFA44254F8E096
:20968000A49254148254F8CDA404BE1404AE94B2F8BFA2E2F880B4F830A4F880B5F842A5E0
:2096A000F896B3F8A7A3D39E76CB96AF7B30B07AD48E51C096BCD48D1AC096B0D48D0AD4D6
:2096C0008A178BFF1B32CAD48A5D8BFF4DC28E738BFF57C28F1B8BFF54C28EDF8BFF52C2FB
:2096E00093F18BFF56C294BC8BFF48C28E5E8BFF4CC28F428BFF53C28FED8BFF44C28AEAEC
:209700008BFF42C2915C8BFF43C291AA8BFF49C292D18BFF4EC2A0ED8BFF0DC295F8C096A9
:20972000B60D0A4D656D62657273686970204361726427732053657269616C204D6F6E69E9
:20974000746F722050726F6772616D205665722E203253500D0A456E74657220224822206B
:20976000666F722048656C702E0D0A3E000D0A436F6D6D616E64730D0A4D2072656164739A
:209780000D0A572077726974650D0A53207361766520757365722070726F6772616D0D0AC9
:2097A0004C206C6F616420757365722070726F6772616D0D0A54207472616E736665720DA9
:2097C0000A522072756E2070726F6772616D0D0A56207669657720746865203138303227E5
:2097E00053207265676973746572732075706F6E20656E7472790D0A442044697361737308
:20980000656D626C65720D0A422054696E792042617369630D0A4320736176652054696E3E
:20982000792042617369632050726F6772616D0D0A49206C6F61642054696E79204261739B
:2098400069632050726F6772616D0D0A4E20524341204261736963204C6576656C2033205C
:2098600076312E310D0A48207669657720746869732068656C7020746578740D0A0A20469B
:209880006F726D6174730D0A4D6161616120626262623C43523E20446973706C6179206D10
:2098A000656D6F72792066726F6D206161616120666F7220626262622062797465730D0A97
:2098C00057616161612064643C43523E206F722057616161612064642064642E2E206B659E
:2098E00065702077726974696E6720756E74696C203C43523E0D0A546161616120626262BF
:209900006220636363633C43523E204D286161616129202D3E204D28626262622920666F22
:209920007220636363632062797465730D0A52616161613C43523E204A756D7020746F20E7
:209940006161616120776974682050433D3020583D300D0A446161616120626262623C439C
:20996000523E20446973617373656D626C65204F70636F6465732066726F6D20416464726F
:20998000657373206161616120746F20626262620D0A422053746172742075702054696E56
:2099A000792042617369630D0A4E205374617274205243412773204261736963203320563E
:2099C000312E310D0A432053617665732054696E792042617369632050726F6772616D0DB0
:2099E0000A49204C6F6164732054696E792042617369632050726F6772616D0D0A53616117
:209A0000616120626262623C43523E2053617665732070726F6772616D20737461727469DC
:209A20006E67206174206161616120666F7220626262622062797465730D0A4C204C6F61C3
:209A400064732049384845582050726F6772616D2046696C650D0A4E4F5445202D2054689B
:209A600065205341564520616E64204C4F414420636F6D6D616E64732061726520696E20BE
:209A8000493848455820666F726D6174206F6E6C790D0A000D0A4344502031383032205273
:209AA0006567697374657220436F6E74656E7473005230203D5231203D5232203D52332000
:209AC0003D5234203D5235203D5236203D5237203D5238203D5239203D5241203D52422044
:209AE0003D5243203D5244203D5245203D5246203D5043203D5820203D5420203D44202041
:209B00003D000A0D4446203D20009BE0019BE6019BEC019BF2019BF8019BFE019C04019C6B
:209B20000A019C10009C14019C1A019C20019C26019C2C019C32019C38019C67009C6B000F
:209B40009C6F009C74009C79009C7D009C81009C86009C8A009C8E009C93009C97009C9B94
:209B6000019CA1019CA7009CAC019CCA029CD0029CD6029CDC029CE2009CE6009CEB009C33
:209B8000F0009CF5009CFA029D00029D06029D0C009D11009D15009D19009D2A009D2E0017
:209BA0009D31009D35009D39009D3D009D40009D44009D47019D4D019D53019D59019D5FE3
:209BC000019D65019D6B009D6F0149444C004C444E202000494E432020004445432020004F
:209BE000425220202000425120202000425A2020200042444620200042312020200042322F
:209C000020202000423320202000423420202000534B5000424E51202000424E5A20200000
:209C2000424E46202000424E31202000424E32202000424E33202000424E342020004C4474
:209C400041202000535452202000495258004F55542000494C4C4547414C204F50434F44B0
:209C60004500494E50200052455400444953004C44584100535458440041444300534442C0
:209C8000005348524300534D4200534156004D41524B00524551005345510041444349209B
:209CA0000053444249200053484C4300534D42492000474C4F202000474849202000504C17
:209CC0004F2020005048492020004C42522020004C42512020004C425A2020004C42444655
:209CE00020004E4F50004C534E51004C534E5A004C534E46004C534B50004C424E51200018
:209D00004C424E5A20004C424E4620004C534945004C5351004C535A004C534446005345D4
:209D2000502020005345582020004C4458004F5200414E4400584F520041444400534400AE
:209D400053485200534D004C44492020004F5249202000414E4920200058524920200041A7
:209D6000444920200053444920200053484C00534D492020000D0A46756E6374696F6E2069
:209D800041626F727465640D0A3E000D0A43757272656E746C792072756E6E696E67207914
:209DA0006F75722070726F6772616D0D0A000D0A3E000D0A496E76616C69642066696C652B
:209DC00020666F726D6174000D0A436865636B73756D204572726F72000D0A46696C6520AF
:209DE0004C6F61646564205375636365737366756C6C79000D0A46696C652053617665644B
:209E0000205375636365737366756C6C79000D0A556E6B6E6F776E204572726F7220486123
:209E200073204F63637572726564000D0A526561647920746F204C4F41442050726F6772DF
:209E4000616D000D0A507265737320454E54455220746F20636F6E74696E75650D0A000DC6
:209E60000A526561647920746F20534156452050726F6772616D000D0A54696E792042611B
:209E80007369630D0A436F6C64206F72205761726D2053746172742028432F57293F20006B
:209EA000000102030405060708090A0B0C0D0E0F101112131415161718191A1B1C1D1E1FB2
:209EC000202122232425262728292A2B2C2D2E2F3000310132023303340435053606370752
:209EE0003839093A0A3B0B3C0C3D0D3E0E3F0F404142434445464748494A4B4C4D4E4F506A
:209F00005152535455565758595A5B5C5D5E5F606162636465666768696A6B6C6D6E6F7031
:209F20007172737475767778797A7B7C0C7D0D7E7F0F808182838485868788898A8B8C8D96
:209F40008E8F909192939495969798999A9B9C9D9E9FA0A1A2A3A4A5A6A7A8A9AAABACAD51
:209F6000AEAFB0B1B2B3B4B5B6B7B8B9BABBBCBDBEBFC00001C10203C20405C30607C4C561
:209F8000C6C7C8C90809CA0A0BCB0C0DCCCDCECFD0D1D2D3D4D5D6D7D8D9DADBDCDDDEDF21
:209FA000E0E1E2E3E4E5E6E7E8E9EAEBECEDEEEFF0F1F2F3F4F5F6F7F808F909FA0AFB0B81
:079FC000FC0CFD0DFEFF0F7C
:20A00000C080000000F8FF5202FFFF321392FF01B23005F80052023A0DE2C0A78FF800B9DD
:20A02000F800A9F8A0B8F800A8F803AA8A32354859192A302C9E59198E5919F800A8885928
:20A0400019893A3EC0A1059E738E739F738F739B738B73F800BBF803AB4BBE4BAE9FABD4D5
:20A060008A5D6072AB72BB72AF72BF72AEF0BE9FD59E738E738F739B738B73F800BBF803ED
:20A08000AB4BBE0BAE9FABD488468BBFF800BBF806AB0B3AADF800BBF807AB0B3AAD6072AE
:20A0A000AB72BB72AF72AEF0BE9FC0A0476072AB72BB72AF72AEF0BE9FD5D5D5D5D4B8F784
:20A0C0000A0D5052455353203C43523E20544F20434F4E54494E55452E2E00F800BBF8035B
:18A0E000AB4BBE0BAEE0F880B0F800A0D0D48D61F8A1B0F800A0E0D038
:20A100007100C0A76592DD3BD4A796D4A84AD4A755D4B8F70A432052434120313938310DEB
:20A120000A4241534943332056312E310D0A432F573F0D0A00D4018AFB57324EFB143A3595
:20A14000ACF80CDD02F8035FBC8C5CD4A733D4C000DD9DFA033A62D4B8F752454144590D18
:20A160000A00D4AF03D4AC0098FA01326ED5F801BBF8D0AB98FA023281D4AD00D4C0F9301B
:20A180004ED4AE0030629873F839309F9873D4C0818AFF01CBC0938AFD043B948AFC3BDD92
:20A1A0007BF8D5DD7EF81A5F2FF8FE5FF800AAD401FB19191919D4BAF5198A59292929C077
:20A1C000C10098738873D4C054FB023AF399BF89FF04AFFC08A9F808A84F591928883AD93A
:20A1E00089FF04A9D4CB77D4CB001DDD6112F0A8C0BB35D4AF7331FB0A32FF9FD4A6ABD5CA
:20A20000A45245CD8067464F524D41D4B324434CD381244E45D782045255CE8324454EC4C5
:20A2200084644C45D485665052494ED4866350D28665474F54CF876349C68866494E505507
:20A24000D489654C4953D48A66474F5355C28B675245545552CE8C25574149D48D6444495A
:20A26000CD8E64464FD28F654E4558D4906646495845C49125504F4BC592644445C793647D
:20A280005241C494645354D19567444546494ED4966650534156C59766504C4F41C498261B
:20A2A00044454655D39924454FD09A65444154C19B65524541C49C28524553544F52C59D4C
:20A2C00024454FC49E24434CC49F6644534156C5A066444C4F41C4A166454E494ED4A267FD
:20A2E000444953494ED4A366444D4150D4A4645449CEA565544F55D4A66654524143C5A729
:20A300006543414CCCA8644449CEA965444F55D4AA644F55D4AB66434C4F53C5AC644259D3
:20A32000C5AD65455849D4AE6557464CCEAF6552464CCEB06952454E554D4245D2B16545A8
:20A340004449D4B2045349CED404434FD3D502A8D6044154CED8044558D0D9044C4FC7DA21
:20A36000045351D2DB04494ED4DC05504545CBDD044142D3DE04524EC4DF045553D2E005D4
:20A38000494E55CDE105464E55CDE3044153C3E4044C45CEE502DCE6045347CEE7044D4F47
:20A3A000C4E804494ED0E9644E4FD4EA0350C9EB05465641CCEC044D45CDEE045153D4EF81
:20A3C0000345C6F064414EC4B564584FD2B6634FD2B705434852A4B9054D4944A4BA02DEE9
:20A3E000BB045441C2BC033EBDBD033CBDBE033CBEBF65535445D0C06354CFC102ACC202C0
:20A40000BBC302A9C465544845CEC502BCC602BEC702ABC802ADC902AACA02AFCB02BDCC01
:20A4200002BACDFFC0D25FF845BED4A5F59EA3D4A6A8FB11323AD4AF7339DD9EBC52F8832C
:20A44000A8F8003058D4A6A8FB123250D4AF733ADD83BC52F89AA80FACFD00AADDBB77BA20
:20A46000D4A6A8BED4A6A8AE8A528EF59A529E753376D4AF7332D4A6A85C1C2E9EFBFF3A63
:20A480007688A3F803BC52F800AC4CF4DD01BC524CF4DD030CDD04C0B0D0D4B0D0DD83BC85
:20A4A0000FAC524CF4AA4C52DD8374DD198ADD1ADD84524CF4AADD83524C74DD128ADD1344
:20A4C000DD84524CF4AADD83520C74DD148ADD15D5D4A9E2D4A6A8FB0A32D1FB193AF4DDC3
:20A4E0009DFAFB2F5FD4B8F7454F460D0A00D4AEEA2626269FD5DDACD4BBB8DD80C0BBB816
:20A50000DD8F730F73F8C6DD10935F9FBEF800AED4A9681272DD10F05F8EFB80C2AE21D427
:20A52000C0F9A7AE9EB7F820D4BBB807D4BBB847FB0D1E3A2B2EA7F80AD4BBB8D4018A526A
:20A54000DDCFF332D9DD80F33A57873A51F820303927D4A4F6303CDDAEF332B8DDCEF332A4
:20A5600076DDB5F332790FF3327C1787528EF7333C27DD803039F89CC8F81FC8F89DA8D468
:20A58000B000321F52AA87AC88FB9D329A87F4AE4E5717FB0D3A902E8CA788A3C48EF4A76F
:20A5A0000E578E528CF332AC2E2730A0F8D0A7475E1E2A8A3AAF301FD4AC00F8D0AB9EBB6A
:20A5C000D4AE00C0AFCCFB0A32D9FB073AD18E32D98EFB8032D99F5E1ED5DD81BB0FAB1B16
:20A5E0000B52DD86F52B4B52DD857533F32BD4B5BD30DF2BD5D4A7E560DD9DF9042F5FD5C7
:20A60000C4C4C4C0D100F829C8F824AF8E739E738C739C73F801BCF8A9AC0CBEF8A0BCF871
:20A62000BAAC8FA3D4A071302D9FD4A0471272BC72AC72BEF0AE9FD53F3E373AFF00D5C0C4
:20A64000D150F85DBED4A86C9EA3F811D4A6ABF803BAF800AAAEDD83FF02BE3093F812D4AA
:20A66000A6ABDD83BCBA0FAC52AADD9AF7AE5C1C9A52DD9977BE5C1C8A52DD93F75C1C9A04
:20A6800052DD92775C1C8A52DD95F75C1C9A52DD94775C9ED4A6AB8ED4A6AB4AD4A6AB2E0A
:20A6A0009EFBFF3A9BC0A827F8C1C8F8D0AF8C739C738A739FAAF801BCD4AEDFE361028F67
:20A6C000A3F862ACD4A0BC9FAAE3610133E630DDF865AC8ABFD4A0BBE3610133E6D4B8F78B
:20A6E0004552520D0A00D4A880128ABF72AA72BCF0AC9FD5D4C0818AFA0132FE7BD57AD540
:20A70000D4C054FB033A2F19191909AE89FF07A9D4AE96F960DD40F82ADD44935F2FF8C006
:20A720005F2FF8225F8E52C001C089FF04A9D5D4AF7335DD81DD03BCDD82ACFC05DD04F89D
:20A74000FF5CDD3D1C5C1CF8035C1CF8845C1CF80D5CF800B8D4BFF3DD1CDD1DDD33F841B6
:20A76000DD3CC0B0D0F8C0B4F8B6B5F8C2BDF802ADF802B9F870A9F8E8A4F8F2A5F8FFA223
:20A78000B8E2F8FFB2C0A005328F92FF013084F8A0B3F81DA3D3F808DD00F87FDD2AF803DE
:20A7A000DD2BF820DD2CF80CDD2DF813DD2EF844DD35F849DD36F843DD4EF801DD4FF80126
:20A7C000DD4DD59873D4C054FB023AE1D4AE96F968DD25D4BAF519D401A559292929C0C189
:20A7E00000D4AF73340BFB0D32F2FBC032F2D4C08138AAF801BF46AFF8005F1F8AF6F84047
:20A80000C7F8805F1FF8005FD5D3E29673867393B683A646B346A33009D396B386A3E212D2
:20A8200072A6F0B69F3019DD9DFA083247F813D4A6ABF802BEF880AEF800D4A6AB2E9E3A4C
:20A8400038DD9DFAF72F5FC0A8F29EDD29F864AAF808A8F8A8BAF801BFF88AAF4A5F1F28E8
:20A86000883A5CD5D4A609D5D4A606D5D4A7E563DD9DFA083279D4A827DD9DF9082F5FD5CD
:20A88000F8C0B4F8E8A4F8B6B5F8F2A5D51A4AD4BBB8F824C0BBB8C4C4C4C0A0BD8B739B05
:20A8A000739CBB8CABD4B5BD2B9BBC8BAC1272BBF0ABD58B739B739CDD058CDD06D4A5DA9D
:20A8C00030A94A59194A59194A59194A59292929D58A739A73D4C0819ABC8AAC1272BAF09F
:20A8E000AAD598FA0432ECD4C1F730EF1DDD4BC0AB1CF806DD10F8A65FDD9DFAFD2F5FD5F2
:20A90000BEF9BFF3A733B176AFC9B400C401C02AC133BE74A968BDB7BDABB4DAB800B300E6
:20A92000BD7BBCE7BFC1D0F7D0FAA6F4C7D8A63FA424C3EDC0B6B3FBCE6CB3EFC0B9B0D09C
:20A94000A642A427C6E1C12DAEF8AEEAA8F2BFE0BA6BB0B9B0A2A700A827A897D0AFA86C10
:20A96000A5F5B500A500CFF0DD81BA4FAA4FBC0FAC2C0BFB0D3297FBC03297D4A8D1D4A8F8
:20A98000B38CAA9CBAD4A89D0BFBC23A971BD4A8D1D4A8B3D4A89DD4C0F9D4A9F8C0C0F99B
:20A9A000BB03B970BF32BF32BC00BC03BDF3B900BC06BC09BC0CBC0FB100B8DFCAD9B7002E
:20A9C000BA6EBA03BB00BD00B891BF04ABCAB799A1C2A7C3AFD8B7E2B88EAF73BEACA18663
:20A9E000A18CFC00D4A60333EAD5D4AF7300DDAF32F7F820D4BBB8D5D4BAF5F801DD2F4A0E
:20AA000052FBFF3A0D0AFBFF3A0D2929D502D4A8C9D4CDFED4BF631A30301AD4BBB80A521E
:20AA2000FB0D32EA02301AF820D4BBB8F800DD2F0AFBCF3A4CF8221AD4BBB80A52FBCE3217
:20AA400044023037F8221AD4BBB8302C0AFBE63A68F85C1AD4BBB80A52FBB832600230530A
:20AA6000F85C1AD4BBB830270AFBD03A80F8401AD4BBB8F804A84A28D4BBB8883A76302CB1
:20AA80000AFBE23A8FF8231AD4BBB8F80230750AFBD13A9ED4A9EE1A4AD4BBB8302C0AFBC6
:20AAA000D73AABD4A9EED4A88D302C0AFBD23ABC1AD4A8C2D4CDFED4BF63302C0AFBB43A01
:20AAC000CC5919591A1A1AD4A8C730B40AFBD33ADE1AD4A8C2D4CD0069D4B1C5302C0AFB6D
:20AAE0000D32EAD4B07F322C301E9A529CF33AF68A528CF3320CD4C0F91AD4A9E2C0A9F8D3
:20AB000098FAF3B80B52FBC93A121B8373305EC0A8E2F8C8F33A181B8373305E0B52FBB5F1
:20AB20003A2A1B8373305ED4ACB2F8B7F33A371B8373305ED4ACACF8B6F33A441B837330A2
:20AB40005ED4ACAFF8C8F33A511B8373305EC0B0E7F8C9F33AC91B8373305EC0ACEF83738D
:20AB600030820B52FBCA3A701B83733082C0ADEFF8CBF33A7D1B83733082C0AFEF12F0FCAC
:20AB800003A38373309B0B52FBBB3A961B8373309BD4CD6C308612F0FC03A3F8A9BA0BFFC3
:20ABA000D033A7D4AF7309F801BFF8A4AF0BFEAA4A5F1F0A5F1BD401A398FA0CFB0C3AC4CF
:20ABC000D4AF730712F0FC03A3D589FC04A9D4BAF5F800BFF808AF4BFB3032E4FB0132E842
:20ABE000D4AF7326FC0030EAFF009F7EBF2F8F3AD74BFBB83AE0199F5929292998C0BB388A
:20AC00001DDD1D898C00F8D0A7F801B7BCF800AC98FA013A1ED4BEDE321E98F902B8F8A2F9
:20AC2000B9F800A94C57FB2032242C9CBA8CAA07FB0D3249FB23C2C2FAFB0F3A50F8805765
:20AC4000171C0C5717FB0D3A4112D2D5D4AF7316FB03CAB064F8CF57171C4C5717FB0D32DE
:20AC60004CFB2F3A5AF8CE275717301EFB1C3A81F8D057171CF804A84C571728883A78300D
:20AC800024FB633A8EF8E257171CF8023077D4BE00D4BEDEC2C2FA4C524CFB243AA4F8D72F
:20ACA000571730A92CF8D15717023068F8D5C8F8D8C8F8DB7398FA083AC889FF04A9D4BA7E
:20ACC0002089FC04A9D4BA2019191909AF89FF04A912F0E9A38FF1C88FF3C88FF273F80030
:20ACE00073735998FA083AEBD4BD0AF81CA6D598FA0432FAD4CCFD4B30FD1DDD61C0AB1C73
:20AD0000F802B9F870A9303D4BDD084BDD091B98FA40323D89FC04A9D4BAF5DD8859190FAA
:20AD200059292929D4B8F75452205B00D4CDFED4BF63D4B8F75D0D0A0089FF04A998FAF355
:20AD4000B8F801BAF8A0AAF8A9BC0BFBD132590BFBD732590BFDB43BA04BFEAC4C5A1A0CC7
:20AD60005AD4019FD4A9E2DD983295D4C12DDD96BA4FAAF8005F8B739B73D4BEAC3283D458
:20AD8000AF732BD4C046D4AD0898F901B8D4C6F71272BBF0AB4BFBCD323D2B4BFB0D32A478
:20ADA000D4AF732A98FA013A08D5AB0BFBFF3AB1D50BFA1F528BACF4AB9BBC7C00BB224B12
:20ADC000520AF332C81230AB121A4CA8FA2032D3D4BBB888FA1FAB2B4CFA7FD4BBB82B8B7E
:20ADE0003AD888FA4032ECF820D4BBB8F801D598FA0432FAD4CCFD5130FDD4CB00C0AB62EB
:20AE00004BDD050BDD06D4BE3B320ED4C4D6F8D2ABF801BB0BFB0D326DD4B5C0ACFF9F3BF3
:20AE200025D4AF7327D4A5DA9873DD83BAB80FAAA88C5288F4A8AF987C00B8BF2A2F0A5F41
:20AE40009A529BF33A3C8A528BF33A3CF8D0A7F801B7475B1B475B1B2C2C8C5B1B2C475B71
:20AE60001B2C8C3A5E88DD04985F12F0B8DD81BC52F801ACDD83F75C1C0F5CD4B0D0D4BE1C
:20AE8000AC3293D4B8F73C4D454D205741524E3E0D0A00C0AEC589FF04A9F800AF493AC1A3
:20AEA000493AC1493AC149528F3AB40232B06122F801309CF807F1FB073AC189FF08A9F0B0
:20AEC000D5D4AF7333D4BB6032CBD52A2A2AF8D25A1AF8005A1A5A1A1A1AD4BB7030C8F8F4
:20AEE000A8B4B5F80AA4F81AA5D5F809DD0CF8A65FDD9DFAFE2F5FD5D4C0818AA09AB0D5F5
:20AF0000D4C0F998FA01AC320CF83FC8F83A52DD9DFA03BC3A1A02D4BBB8F801B7F800A785
:20AF2000D4018A528C3A33873A33F80DF3321AFB2D321ADDABF33200DDAAF33A478732203A
:20AF40002707D4018E3020DD80F33A5587320327D4A4F63020025717FB0D3A66DD1B9C3AAA
:20AF600072F80AC0BBB887FB603A20DD80D4018E304FD5F802ADF8C2BDF802B9F874A9D420
:20AF8000A827D4C0F9D4BAF5190659292929D4CDFED4B8F745525220434F44452000D4BFE6
:20AFA0006398FA0132C6D4B8F70D0A4154204C494E452000D4BAF5DD8859190F59292929CF
:20AFC000D4CDFED4BF63D4AEEAD4C0F9DDBBB2F8FFA2D4C12DC0A14E9873D4D0D2F80059BD
:20AFE000195919591909FBFF59292929C0C10098FA0432FAD4CCFD5430FDD4CB77C0AB6239
:20B000009EBCF8D0AC88FB9D3A0F8EFF5F30138E5287F7FBFFAAF8001A1A3363D4018A5255
:20B02000DDAEF33260DDCFF33263DD80F33244DDAAF33254025C1C2A8A3A1C2C1ADD80D40B
:20B04000BBB8301C8CFBD03A4DDDAC303F2CD4A4F61A301C8CFBD0321C2C0CD4BBB8304EB9
:20B060008CFFD0D5FB7ECAAC6CF8E657171C4C5717FB0DC2AC4CFB513A6EF8B8C0AC678C5E
:20B08000739C738B739B73F8A2BBF800D4ADAA3A95D4AF73181272BB72AB72BCF0AC88FA25
:20B0A00080D5DD9DFA083AACD4AF73292F0FF9025FF8F7DD10F8A15FD5DD9DFA043AC3D430
:20B0C000AF73282F0FF9015FF8D1DD0CF8255FD5DD84FC09AADD837C00DD12DD14DD198A40
:20B0E000DD13DD15DD1AD598FA0432F2D4CCFD4E30F51DDD20C0AB1C5FDD9DFAFD2F5FD504
:20B100009873D4D0CF98FA043260093260AFFA8032681909FA80BA298FFD98AFAA3B60FF95
:20B12000183363F800BF198F323F2F09F65919097659190976593B3BF801BF292930278AC7
:20B1400032522A191909FE5929097E5929097E59303F299A32609F3260D4BBE6D4CCFD4B4B
:20B16000C0B7C93268C0B7DD1909FA8029AF1DDD8E8F3A59306098F901B8F8D0DD07F80DF8
:20B18000DD50D4B3EF0BFBC83291FBC532B6C0C02AD4BB603AB64ADD051F1F0A5F2A2A2AF9
:20B1A0002AD4BE3B32C1F8B45A1A9B5A1A8B5A2A2AD4BB703094D4B0D0DD81BB0FABC0C0D3
:20B1C00036D4AF732E1DDD1D87888A8C8B8E00ABF8E0AEDDBDA7BBFF063BDEF806A79FBA77
:20B1E000BC99BEF8C0AA4AFB0B32F0F82DD4D0F14A3AFAA8D4D0EFC0B27EF8CAAA4AA8F8AF
:20B20000005288320C02FC0A522830020AF4A8DDC9FB0B3A1C88FF0733ED30438852FF04BC
:20B220003B279BFF0733EDF8C8ACF7AAFFC13B390A5C2A2C8AFBC03A30F8005C2C8CFBC078
:20B240003A39A8875288F4B7FF073B4FF806B797FCC1AAACF805520AF4FF0A3B71F8005A84
:20B260002A8AFBC0326AF80130561AF8015A1830750AFC015AF8005C1C8CFBC93A75F8C191
:20B28000AA88328B284AD4D0EF30818AFDC9A8F8C8AC0C3A9F282C8C528AFF01F33A9288BD
:20B2A00032CADDBDA732CAF82ED4D0F18832BA8732BA27284AD4D0EF30AC9BFBFF32CF878E
:20B2C00032CFF830D4D0F12730BF9BFBFF3AA78B32E8F845D4D0F1F8C9AA4AFC20D4D0F147
:20B2E0004AD4D0EF0AD4D0EF12D2C0CCABF8C6AAF806A80A3AFA282A30F3F8C1AAAB30A218
:20B3000098FA01320AD4BEAC320ED4AF730BAE4BAF1B0B2BFBD63227D4B40A2C2C2C8C73A7
:20B320009C734BFBC1322BD4AF730CD4AB044BFBC03A46D4AB0498FA08323E093041190966
:20B3400029FA80AE3049D4BBE58B739B738E7398FA0C521DDDD629292929121DDDD689FFD4
:20B3600004A9D4AD6482AA92BA1A89FC04A9F808AF4A59192F8F3A714A5298F1F901B84A82
:20B38000AE1A1A4ABC0AAC2A2A2AF804AF4C59192F8F3A8D89FF04A998FA0832A21DDD20E6
:20B3A00030A6D4CCFD4E1919192CF804AF095C292C2F8F3AAD1998FA0832C51DDD611DDD4C
:20B3C000C4AF0930CDD4CCFD4B49AF0929FA805289FF04A98F32DB8EF33AE14ABB0AAB30BF
:20B3E00062F810AF122F8F3AE4F0B6F864A6D5DD82DD32DD81DD31F8005FD5D4B5C02BD57A
:20B400004BAFFBD73A0AD4B5E1D58FFBD13213D4AF73154BA8FF41FEFEACF802BC0BFBD6C5
:20B420003A27D4B60030A7FB043AA797731B4B3A374B3A374B323BD4AF733B4BB7D4BD3F12
:20B440003AA4877397738A739A73DD99BA0FAAFC06AF9A7C00BF5292F33A5FD4AF73308A71
:20B46000528CF5A79A529C75FC01B70A5F2A2F27973A6BDD952FFC065F2F0F7C005F2F0F23
:20B48000FC065F2F0F7C005F8FFC08AF0FFC065F2F0F7C005F1272BA72AA72B7F0A7885C69
:20B4A0001C975C1C12F0B78852DDBCF53BB398F90430B698F908B886FBBD3AC296FBB63ACB
:20B4C000C2D54BFBCC3A0FD4AB04495C1C495C1C495C1C095C89FF07A9D5D4D0D2D4C084B4
:20B4E000D4A9E2F8F0AF2F8F3AE69AC68AC42A3AE0D51B4B52FBCE3AFAD502D4BBB830F3BB
:20B50000987387730BFBD23A0ED4C0818AC8F80AA7DD99BA0FAADD81BC0FACF800BEAE4C88
:20B520005A1AFBFF323C4C5A1A0C528CF4AC9C7C00BC9A5292F33A1FD4AF733FDD81BA0FEB
:20B54000AA0AFBFF325F8E5287F4AE9E7C00BE5A1A8E5A1A0A528AF4AA9A7C00BA3041D4BC
:20B56000BB603A94A8B8DD99BC0FAC885287F4A8987C00B84C52FBFF32B90AF332811C304D
:20B580006B1A0A522A4CF33A6B985A1A885A1AD4BB7030621272A7F0B8D4BAF59E59198E2F
:20B5A00059292929D4CDFED4BF63D4B8F720434F4D502042520D0A00D5D4AF73401B1B1B29
:20B5C000F803A84B18FBD232D1FB0132D1FB673ADB1B1B1B1B1818181830C3FBB93AC38827
:20B5E000D58E734B73D4BAD5734BFBCC3AFCD4B90D1272AEF0A8D4BC5312AED5D4AF7322A5
:20B600008A739A7398738873D4C054AFACF800A8493AB6493AB6493AB6883A2009BC302293
:20B6200009AC32B689FF07A92F188F3A1089FC04A912F0A8DD92BA4FAA4FB70FA797529AD8
:20B64000F33A4987528AF332B6475288F3325E475247BF87F4A79F529774B7E2303D1717A1
:20B66000D4BAF5199C5919521707F73BB627D4BAF5198C5247F73BB62C8C5919D4BAF51932
:20B680000759292929272727D4CB001DDD20191949BC09AC89FF07A98CFEAC9C7EBC8CFEE7
:20B6A000AC9C7EBC87528CF4AC97529C74BC1272B872BAF0AAD5D4AF7302D4B4008B739B5E
:20B6C000738C739C738EAB9EBBD4AB040BFBC23AD41B30DD0BFB0D32DDD4AF73138BAE9BD7
:20B6E000BE1272BC72AC72BBF0AB98FAF3B8C0B4CAD3BFE296B386A31242A602B69F30F193
:20B7000098738A739A7389FC04A9D4BAF5F8365919F8195919D4BAF5F8355919F88D591923
:20B72000D4BAF5DDBE59190F59292929D4CB001DDD20191949BADD3E09AADD3F292929D46F
:20B74000BAF50BFBD63A748A59199A59292929D4D0D299BF89FF04AFFC08A9F808AA4F593E
:20B76000192A8A3A5E89FF04A9D4CB77D4CB001DDD61309098F904B8298A5919FA80AF9A2A
:20B78000592929F880598F3290D4BBE6D4CCFD4E1272BA72AA98F1B8D59873D4D0CF98FAFC
:20B7A0000432B70932DD190929FA80AFD4BBEA8F32C9D4C1F730C91DDDC432DD09FA80AF89
:20B7C000D4BBEA8F32C91DDD4B98FA043AD1C0C10012F0FA0832DCF0B8D4BA20D51DDD8E3A
:20B7E00030C989FC07A9E9F8CF73F80F73F84973F8825998FA083AFD98F904B8D5C0BA206A
:20B800004BFBD13209D4AF73034B73D4C054AF2FF800B7F801BAD4B88409AAA789FF07A955
:20B820008F323BFB013A05D4B88409BA19D4CB00D4B88749B709A789FF07A987FEA7977E0A
:20B84000B7330587FEA7977EB733051717DD92BC0FAC12F05C1C875C1C975C1C9A5C1C8A91
:20B860005C2787528CF4AC97529C74BC33055292F533058CDD13DD1A9CDD12DD194BFBC246
:20B8800032002BD5493A05493A05493A05D5F8BFC8F8A4BF98739F734BFBD6CABF00D4B9E0
:20B8A0000D12F0A389FC04A9D4BAF5AF19F801BF0F5929292909B84BFBC43A9BC0B7C99846
:20B8C000FA01C2BE791DDD1D8B00D4AC00F8D0ABDD079FBBD4AB00F80DDD5012D230B7988D
:20B8E00073D4D0D25919591949BF09AF0F5929F800592929C0C1004632FFD4BBB830F7D54C
:20B9000096FB013A0D86FBA23A0DC0B5E11DDD1D878C8E00F801B7F800A74B52FBCF3245A9
:20B92000FB183A674BA8D4BAD5AED4BF933A37D4AF7336D4AF734287FB8032334A5717FB3A
:20B940000D3A37305687FB8032334B5717FBCE3A4527F80D57170BFBC83A5F1B27301A9658
:20B96000FBCC326612D2D5FB6D3A2FD4CC13305696FB013A7E86FBA23A7E2BC0B4001DDDE7
:20B980001D878C004BA8FF41FEFEA70BFBD63A95D4B60030A3FB043A9ED4C09730A3F802CA
:20B9A000BC87AC89FC04A98CAF9CBF1DDDEB12D28852DDBCF53BBBF80430BDF808AF98FA7F
:20B9C0000C5232D38FF23AD38FFB0432D0C0BD0AC0BA208F5298F1B8D58B739B738EAB9EEB
:20B9E000BB4BFBFF32F21B1B4BFB9B32F6D4B5C030E1D4AF73208BAE9BBE1272BBF0ABD533
:20BA0000F80FC8F80AAF98738FA3D4D0CF3012D4AB0098FA04321AD4BA2012F0F908B8D515
:20BA2000D4CAE97309FA803A2E1DDD8E12D509FF98336749FD98AF09F9805909F659190996
:20BA400076591909765929292F8F3A3B293B5C89FC04A9D4BAF5D4BBF21DDD20F80059122E
:20BA6000F032661DDD4BD5D4AF730FF801C8F800BF987388738D739D731DDD1D8A8C8E00D6
:20BA80009F73D4C054191952DDA9BEF8A4AFF801F332ABFB0332A3FB013AD149BA09AA89B7
:20BAA000FF05A949B809A889FF05A9495F1F095FD401A38859299859298A59299A591272A3
:20BAC00032C689FF04A9D21272BD72ADF0A8C0C100D4AF73240BFBD63AEE1B98738873D4DB
:20BAE000C0811272A8F0B84BFBC43AF18AD5F800D5D4AF7323F8005919591959195929D512
:20BB0000F800C8F801AF987389FC04A9D4BAF58F3A1819F801A8301BF802A84BD4BB44FE59
:20BB2000FEFEFEAF4BD4BB44528FF1591928883A1B2929292912F0B8FA043A4198F908B8CD
:20BB4000D5C0BD0AFF30523B5CFF0A3B5AF810F7335CF807F552FF10335C02D5D4AF730E86
:20BB6000DD81BA0FAAF800AEBE4AFBFF32B31A1A4AFBD2327DFB01327DFB673A831A1A1A55
:20BB80001A3070FBB93269FB8ACEFB0CCEFB25CEFB0CCEFBA33A700AFBD232A40AFBB432D1
:20BBA000A41E30701A1A1A1A1A0AFB0D32B5FBC03AA1C8F8012A2AD552DD80F332D8F80D77
:20BBC000F332DEDDADF332DEDDACF332D2F8E0F232E0DD9BFC0130DEDD9BFF0130DEDD1B78
:20BBE00002D4018ED52B89FC04A9D4BAF598FA043AFA19F80159292929D52929F88159D5AD
:20BC0000F824C8F82AC8F830C8F836C8F83CC8F842AF98738F73D4D0CF98FA083221D4BD8D
:20BC20000A12F0A3D4CD00573046D4CD005A3046D4CD005D3046D4CD00603046D4CD006387
:20BC40003046D4CD006612F0B8FA083250C0BA20C0C10AD4BF933274528AF4AF9A7C00BFE4
:20BC60002A2A2A9F529CF33A6F8F528CF332744F5A1A3063AFACF801BF1C4FFB0D3A79AFD9
:20BC8000885A1A8E5A1A8C5A1A9A5292F3329C4F5A1AFB0D3A898ADD1A9A5FD5D4AF733064
:20BCA0004B73D4BAD573D4AF03F801B7F801A707FB243ADF8B739B73D4AC00F8D1AB97BB89
:20BCC0004BA8D4BAD5AED4BF933ACFD4AF73211272BBF0ABF800A74A5717FB0D3AD7A71217
:20BCE00072AEF0A8C0BC530BFB0D32FCFBC032FCD4C0818AFF0633FC8ADD3DD5F8FF30F927
:20BD00009873D4D0D212F0F904B81DDDC4323E8C739C73D4CAF6F67652F8A0AF09FA803A59
:20BD2000272F1DDD39301C1919495929294959292949FA7FF159298F591272BCF0ACD51D29
:20BD4000DD1D8E00DD84FC09AC2F2F0F7C00BCDD94BE0FAE8C528EF33A609C529EF3327698
:20BD600088524CF33A6C97520CF332731C1C1C1C1C30541CF801AF12D28FD50BFBD13AAB9F
:20BD80001B4BA80BFBD232942BF802BC4BFF41FEFEAC3097D4C09782FC13AA927C00BA4AA4
:20BDA000529CF33AB30A528CF33AB312121272A6F0B6D5D4AF731A0BFBB43ACD1B4BBF4BE3
:20BDC000AF1B1B8B739B738FAB9FBB30D7D4C0788B739B73D4C046D4BEAC32E0D4AF730D92
:20BDE000D4AD0898F901B81272BB72AB12F0B6F864A6D5D4AB044BFBC432FFD4AF731CD5E0
:20BE000009FBFF323A49A8FA1FAF4C52FB20320A49FA7FF32F32269ABC8AAC8F5289F4A936
:20BE2000997C00B930002949FA80320A49571788FA803A37F81EC8F842A6D5DD81BB0FAB4C
:20BE40009B52DD83F33A4D8B520FF332684B52DD85F33A5A0B520FF332702B1B1B0B528BD2
:20BE6000F4AB9B7C00BB3040DD81BB0FABF800D52BF801D598FA013A7DD4AF73110BFBCF22
:20BE80003A85D4B4F2DD87AE9FBE0BFBD73A931BC0BCA00EFB0D3A9ED4A162F8D0AED4B654
:20BEA000BA4B52FBC232932B8EDD07D589FC04A9D4BAF592FF015919825919D4BAF519DD11
:20BEC0009A5929DD995929291DDD6109FA80BF96FB013AD898C0C10389FF04A99FD50CFF14
:20BEE0003033E7D4AF731BFF0A33EEF800D5FF073BE3FF1A33E3F801D54BFB0D3AF92BD549
:20BF0000D4AF730198734BFBD63A004BFBD73A001DDD1D8E8C004BA8D4BAD5AED4BF93C255
:20BF2000B92FAF12D289FC04A9D4BAF5192F8FC0B8B189FC04A92B4B528BAF9BBF1DDDEB5E
:20BF40001B1B1B1B98FA083A56F8D3F33251C0C10798F904B8D5F8D2F33255D4BA2098F9DD
:20BF600008B8D51DDD1D8C8E00F801BC99BEF8E0AEF8C0AC4CFB0D3A7EF82DD4D0F18CFBB8
:20BF8000CB32874C327E2C4CD4D0EF8CFBCC3A87C0B2E8DD92BA4FAADD99BC4FAC9A529CD1
:20BFA000F33AA98A528CF332C0EA88F31A3AB18EF31A32BF8AF4AA9A7C00BA1AE2309D4A5D
:20BFC000D5D4C054FB0232CCD4AF731D191919095289FF05A949BF09AF025F89FF07A9D58C
:20BFE000D4C0818A3AEE9A3AEE98FABFB8D598F940B8D5DDADD4BBB8DDCDBF2F9F3AFBD56A
:20C0000098FA80B8F8C0BAF821AAF8C0B1F8D1A1F801BFF89DAF4A1F5F8FFBA63A16DD1815
:20C02000D503D40000D5D40000D50BFBB43A3E1B4BBF0BAB9FBB1212F0B6F8A4A6D5D4C0FA
:20C04000433036D4C0788ADD069A5FD4BE3B3A3DD4AF732E8C73F800AC4BFBD63262D4AF87
:20C060007305D4BA004BFBC21C32622B4BFBC43A5E8CAF12F0AC8FD598F908B8D4AB0430E4
:20C0800084D4BA00493A93493A9349BA09AA89FF07A9D5D4AF730697731B4B3AA34B3AA32E
:20C0A0004B32A7D4AF733B4BB7D4BD3F32B212F0B7D5D4AF7341DD83C8DD99BA0FAAD4B813
:20C0C000F740009AD4C11E8AD4C11EF820C0BBB871227822739D738D52F801BDF898AD5D75
:20C0E00072AD72BD7230D0D3BFE29673867383A693B646B346A39F30E7D4B8F70D0A00D591
:20C1000012F0B8FA083A0ED4BD0A98F904B8D552FF0A023B19FC37301BFC30C0BBB873F667
:20C12000F6F6F6D4C10F12F0FA0FC0C10F22F8235271D50BFBD7323CFB6D3A78D4B90D4BBF
:20C14000FBCCAE3249FB733A74A7F801B74773FB0D3A4D278773D4B90D1272A707F33A67B2
:20C160008732712712305C87326E271230678E30D38E30DED4AF732FD4AB004B73D4AB04C7
:20C1800098FA043291D4CCFD4B49BF09FA80AF309D1DDD6109FA80AF1DDDC4BF1989FF05A7
:20C1A000A912F0FBC732C4FB0132CAFB0A32BFFB7332D2FB0132D7FB0332DDD4AF73109F05
:20C1C00032E030EE9F32EE8F30C09F32EE8F32EE30E09F3AE030EE8F3AE09F30C08F3AEEAD
:20C1E0000BFBC53AE61BF83DA61212F0B6D52B2BD4B5BEF8A430E84932FE09FB805929D51A
:20C20000E2D3C843AD2252F801BF43AFFA8032144F1230018FFC80AF425F2F3001C0D08373
:20C22000E92989FC04AF99BF0FF4732F0F74732F0F74732F0F74593000E919191909FE73B3
:20C24000097E73097E73097E593000E919191909FD0073097D0073097D0073097D0059302C
:20C2600000E92989FC04AF99BF0FF5732F0F75732F0F75732F0F7559300009F6591909762D
:20C280005919097659190976592929293001E9191919F800737373593000E2221949734987
:20C2A000730952E9F800734273427342593000E91919199FF473097C0073097C0073097C78
:20C2C00000593000C0C7F3C0C5E1C0C5E8C0C5EEC0CED7C0CEDAC0CEDDC0D004C0D008C0F1
:20C2E000D012C0D021C0D027C0D02BC0D032C0D04AC0D000C0D00EC0D0188A73ACF802B96B
:20C30000BFF870A91DDD8EA8AABAC8181C0CFF2E320BC7FF023B5E52FF0A33438832201A21
:20C3200009FAF03A3F1DDDE81DDD391DDD391DDD201DDD3902BF1DDDAF333F09FE3B0CD4FE
:20C34000AF732CFF0B3A5E1C0CFF2B326DC7FF023B5D326AFF033B5D52FF0A3B782C88C2E2
:20C36000CDDB2888328CD4AF732DF880BA1C0CFF303B6652FF0A33661C0CFF303B8DAFFF99
:20C380000A338D1C02FEFEF4FE528FF4529A3A94F880F438F7528AF5AA98DD341DDD1D87DB
:20C3A000888C00B7B8BCF89FACD4C8D78C32E78AFE32E433D989FC04A98C731DDD8EF88404
:20C3C000ACF850591A8AFB8032CFD4C8C830C48CA81202ACD4CF0330E48AFB8032E4D4C833
:20C3E000C82A30D9D4CBE612D212C0CDEBD4BA00F800AC191909DD0152DD9EBCF55CC0A7C3
:20C40000330BFB0D328EFBC0328E98FADFB80BFBD732C1FB6D32C1FB0332A0FB76329BFB3E
:20C42000733A4A1BD4D0D2D4C0848AFA7FAADD9B528AF73B3AAADDAC303F8AF5AADD80AC1B
:20C440008A32658CD4BBB82A3040D4AB0098FA04325BD4CD0069D4B1C53061D4CDFED4BF95
:20C460006389FF04A90BFBC23A77DD9BFA07327FDDACD4BBB8306AFB0F328EFB0E3A8698EC
:20C48000F920B81B3001FBCE328ED4AF731E98FA203A96D4C0F998FADFB8D5D4B4F23065C6
:20C4A0001B4BFBD63ABDD4BA0019191909D4BBB889FF07A94BFBC232A6FB063265D4AF737F
:20C4C00025D4B90DF801BAF800AA4A52FB0D326502D4BBB830CA9BBC8BACD4B5BDA84B5CA7
:20C4E0001C9B52DD83F33ADE8B520FF33ADE8852DD84F7BC33FCDD83FF01DD039CDD04D522
:20C5000097320ADDB4B8D4AF73088C32031DDD1D8A8E00AABA89AEFC04BEA91DDDD61DDD45
:20C52000DFC9311DDDEEFE332D2C1A30238CFA803A361C2A302D8EA91DDDD01DDDF4C9670B
:20C54000D4C9AD9EA91DDDCA8EA91DDDD01DDDD9C967F880B79EA9D4C9AD9EA91DDDCAD4E3
:20C56000CF031DDDD01DDDE5D4CF001DDDD01DDDF4C96DD4CF001DDDF4C973D4C9AD9EA951
:20C580001DDDCAD4CF001DDDF4C979D4C9AD9EA91DDDCAD4CF008A32BC9EA91DDD8EB8F815
:20C5A00087A88AFE3BADF880B88AFD00AA8AFA403AB7288AFE30AC8A59D4C9AD1DDDF4C956
:20C5C0007FD4C9A91DDDF4C985D4CF008CFF7033D71DDD8EBCB7AC9EA91DDDCD8EA912D2E2
:20C5E000D51242B742AC30EF1242B842A838124259194259194259194259292929C0C20159
:20C600001DDD1D898A00AA97BAF800B71DDDF4C9311DDDEEBF89FF04A99FFB01CE302F1AA0
:20C620001DDDE51DDDF1C93189FC04A9D4CF031DDDD01DDDE5D4CF001DDDD01DDDF4C9375A
:20C64000D4CF001DDDF4C93DD4C9AD1DDDF7D4CF001DDDF4C943D4C9AD1DDDF7D4CF001D70
:20C66000DDF4C949D4C9AD1DDDF7D4CF001DDDF4C94FD4C9AD1DDDF7D4CF001DDDF4C95509
:20C68000D4C9AD1DDDF7D4CF001DDDF4C95BD4C9AD1DDDF7D4CF001DDDF4C961D4C9AD89E1
:20C6A000FC04A91DDDCAD4CF001DDDF4C931D4C9AD89FC04A91DDDCAD4CF008A32CD1DDD1C
:20C6C000E51DDDF1C90D89FC04A9D4C9A99A5297F3B7DD9C32DE1DDDF4C901D4CF0312D244
:20C6E000D50BFBB43AEF1B1B1B4BBA4BAA30F2D4C0788ADD179A5F22F8235270D5F800C8FE
:20C70000F8FFBF1DDD1D898A8B8E00AE1E9FBA97AA89FC04BBDD9C32211DDDF4C901D4CF4F
:20C72000009A3A3F1DDDF4C9071DDDEEFE33D589FF04A997FB80B71DDDF4C90DD4C9ADF836
:20C7400000B71DDDF4C90DD4C9A91E9732421DDDF4C90DD4C9AD2E8EF67333671DDDF4C96B
:20C760000DF880B7D4C9AD1DDDE5D4CF001DDDD01DDDF4C913D4CF001DDDF4C919D4C9AD60
:20C780001DDDF7D4CF001DDDF4C91FD4C9AD1DDDF7D4CF001DDDF4C925D4C9AD1DDDF7D466
:20C7A000CF001DDDF4C92BD4C9AD9BA91DDDCAD4CF001DDDF4C931D4C9AD12F0F63BC2F8B4
:20C7C00080B71DDDF4C9071DDDEEFE3BD512D21DDD8EB7ACD512D2D50BFBD132E8FBDC3217
:20C7E000E5FBC03AEFF840C81B4BFC01DD3CD5D4AF7304E949F119F119F1292929C0C200F1
:20C800001DDD1D8B8E0097BBF800B789AEFC04BEA91DDDDFC9A3D4CF008CCEFA80324A0908
:20C82000AB8CFD87332DDDB4B8D4AF730FAF8F32378BF6AB2F302E8CFB8032421DDD392C55
:20C84000303709FA7F59D4C8D738AB1DDDD01DDDE5D4CF001DDDD01DDDF4C98BD4CF009EA7
:20C86000A91DDDCA8EA91DDDD01DDDD9C9919EA9D4C9AD1DDDE51DDDF1C99D9EA9D4CF036F
:20C8800097FB80B79EA91DDDCAD4C9AD1DDDF4C997D4C9AD1DDDF7D4C9A91DDDE58EA91D78
:20C8A000DDC79EA9D4CF031DDDF4C97FD4C9AD1C8C528BF4AC9B32C51DDDE51DDDF1C931EC
:20C8C0009EA9D4CF0312D2D51C1C1C1DDDE81DDD7A1DDD7A1DDD201DDDC43AE0BCACB7D5AE
:20C8E00009FA8032E91DDD7A1C09FA403AF41DDD392C30E99C3AFA8C3ADFDDB4B8D4AF736D
:20C900000F007B477D1A88007368DB8BAB00816487ED00FF6B45ED6C75007167DAD059FF8B
:20C92000775B04DD14007C555551E0FF804000000000814000000000785DEBAE0BFF7B4224
:20C9400036F70C007C57E0FD02FF7D4D188F40007D6D1ED9DCFF7E48BFE3AE007E665E0226
:20C96000E8FF7F55553EF500805A827B6C00804CAB580600807B117B4E00825C551D6700D0
:20C980008040000000008058B90A75007C46FA6FF90087576AE11300844FA30338008A4DDF
:20C9A0003F1CD400815C551DA098FB80B88C5288F73BC81DDDD389FF04A91DDDE589FF04C1
:20C9C000A91DDDC789FC04A988528CF7AFFF1E33F98F32DA1DDD7A2F30D1975298F332E39E
:20C9E0001DDD4B1DDD20975298F332F609FA8032F61DDD4B98B7C0C8D789FF04A930F61D26
:20CA0000DD1D8B8E009773B8F80AA789AEFC04BE8C32419EA91DDD8EF884A8F850598CFD87
:20CA20009F3329D4CF031730138EA98CFF9C3336D4C8C82730298CFD9F32411DDD7A1C30F5
:20CA400036F8FFBF1DDDAF12F0B7D4CE0CF801BBF8C9AB87FA80325F87FD00A7F80DC8F838
:20CA60000B5B1B1BF800AF87FF0A1F33682FFC0A5B2B8F5B12D293B6F87CA6D512D2D5F8B7
:20CA8000D3C8F8D67389FF04A909FA803AA38E32B22E1DDD398AFEAA9A7EBA8B7EAB9B7E81
:20CAA000BB30899EA91DDD611A8A3A899A3A891B30899EA91DDD613BC31A8A3AB29A3AB212
:20CAC0001B30B29EA9E9298A739A738B739B59E21202A3C0CBDDC0CF609873D4D0CFD4CAF8
:20CAE000E4C0B7C998FA0432F6190929FA8032F5D4C1F7F801D509FA8032F51DDD4B30F3FC
:20CB00001DDD1D8B8E00AEF804AB99BF89BEFF04BBAFA909FA8073321C1DDD4B9EA909FA08
:20CB200080322912F3731DDD4B09733A318EC612381E0F59F8005F191F2B8B3A298E3A459D
:20CB4000129BA930749EA9F808AB1202F6523B5B1DDD203B59D4AF730F9EA91DDD392B8B14
:20CB60003A4B2E8E3A479BA909FA803A55120232741DDD4B12D2D51DDD1D8A8B8E00BEAEBF
:20CB8000AAF81EAB89BAFF04BBA909FA807332931DDD4B09FAC03AA68B3A9F1212D2D52B83
:20CBA0002E1DDD3930939AA909FA8032B312F3731DDD4BF81EAB09FAC03AC98B3AC2D4AF58
:20CBC00073082B1E1DDD3930B69E32D39BA91DDD8E309B9ABEF800BBABBAC0CA7F1202327F
:20CBE0009C1DDD4B309CF840BF1DDDAF09FA8032FC1C9C32FFDDB4B8D4AF730F1DDD394984
:20CC0000FA7F5297F173495249E97342730273E28C59D54BFBD63A7F0BFBD73A7F8773D40F
:20CC2000B91A4BFBC23A7FD4C0812A8A730BFBC23A381BD4C081303BF8FFAA1272F4AC3357
:20CC40007FF3AFF0A7BF97BC4BFBC43A7F8A327B8F326D87AF47FB0D1F3A552F9FA78F5259
:20CC60008CF7337B4C5717FB0D3A649FA747FB0D327A2A8A3A6DF80D5717D59FA73076D47F
:20CC8000AF73193B9ACA0005F5E10000989680000F4240000186A000002710000003E80057
:20CCA0000000640000000A000000011DDD1D8A8800AAF802B8F8E0A8481A3AB82AF8E0A802
:20CCC00096FBC43ADA8A52DDB332DAF7AA3BE58A32DADDACD4BBB82A30CF4832E2D4BBB880
:20CCE00030DA12D2D5DDB3AA08FB2D3AF6F82DD4BBB82A8A32E2F82AD4BBB830F2F814C844
:20CD0000F82B5298DD3402BF1DDD1D87888C00BC89529FA309A81DDD9A09FA80B888322748
:20CD200009F980591DDD7A89FF04A909AC1DDD9A09FA80B78C323E09F980591DDD7A02A9F6
:20CD400046D4CD4AD4CBE612D2D5A3C0C9A9C0C9ADC0CF00C0CF03C0C6FDC0C700C0C600A8
:20CD6000C0C800C0C500C0CF65C0C9FF98FA043A7DD4BD0A89FF04A9D4BD0A308189FF0435
:20CD8000A90932D2D4CAE973D4CD006389FC04A912F07332C31DDDE80932BAFD983BBAAF33
:20CDA000FF1833AD1909F98059291DDD7AC3C5062F8F3AAA1DDD7AF8FFCFF80012F2738989
:20CDC000FF04A9D4CCFD51D4CD006012F032D2D4C1F798FA043ADAD4BA20D512023AE8982B
:20CDE000FA013AE8191930F5F8D2C8F8D35717495717495717495717095717C0AC1EF800D6
:20CE0000BF09FA80AF32111DDD4B3011F8FFBF97AF1DDD1D888A8B8E00B8F801BBF8C0AB4B
:20CE2000F80AA8F8CCBAF883AA89FC04BE8F3233F80DC8F80B5B1B9F323C8CC65B1B98AE09
:20CE40009ABF8AAF9EA91DDDEB8FAA1DDD619EA91E334B1DDD202E8BFBC13A628E3A632720
:20CE600030658E5B1B28883A3E12D2D5DDB0524FBE0FAE023A7DD4B9D9F801DD300EFB0D54
:20CE80003A851E30760BFBD73AC71B4B73D4BAD5BF12F0AF8B739B738EAB9EBB8F739F73D3
:20CEA000D4B90D1272AEF0A8D4BC530BFBC23AB31B30BC0BFB0D32BCD4AF731F8BAE9BBEC7
:20CEC0001272BBF0AB30CAD4B6BA4B52FBC2327D2B8EDD329E5FD5F8F4C8F8FAC8F8F1AF91
:20CEE0001919192209732909732909732909738FADC0C2018C73977330F18873987330F14A
:20CF0000F81FC8F833BF1DDD1D8A8B8E00BAAABBABAE89BE975298F3B78C3257529FA38873
:20CF20003257FF81AC9C7F00BC8CF4AC9C7C00BCC0CFB4883A3DDDB4B8D4AF7308FF813B21
:20CF400048F5AC9C7F00305088FD81F4AC9C7C00BCF81EAEC0CA8289FF04A91DDD8EB7ACE3
:20CF600012D2C0C8D797326FDDB4B8D4AF730F8C3A73D51DDD1D8E0089AEFC04BE1DDDD076
:20CF80001DDDE5281DDDD3D4CF031DDDF7D4C9AD2C9EA91DDDCA1DDDEE32AC8EA91DDDE5C9
:20CFA0008EA91DDDC71DDDD09EA930841DDDCA8EA912D2D5F804ABFE29097E2B32B8731E05
:20CFC0008B32C929097E2B30BE1DDD8E9EA98E32E9F808AB1202FE523BDF1DDD209EA91DE3
:20CFE000DD7A2B8B3AD52E30CE89FF04A9C0CF60D4C0789A528AFAF0F1CAC0938ADD33D5DC
:20D0000089FF04A943BF43AF4FB74FAC303289FC04A943BF43AF302189FC04A992BF82AF59
:20D020001F4FB84FA8303297B88CA899BF89AFFC04A94F59194F59194F59194F592929294F
:20D04000C0C201F801C8F88130808C5288F53B463A438952FF04AF99BFE94FF73B463A43F8
:20D06000194FF73B7A3A77194FF73B7A3A77190FF73B7AF63A77C8F801C8F881BF02A99FA0
:20D08000C0C200E222F8D37303FC2073F8DD730352D22273F8F87303FC3073F8DD7343FCAA
:20D0A0001052D22273F8F873033A8913C0C2011212121202FBB332C102FBBD32C4D4AF7357
:20D0C0000AF810C8F804AF122F8F3AC7C0C02AF800C8F801AF4BFBD632DED4AF73058F3200
:20D0E000E6D4BA0030E9D4AB004BFBC43ADAD5FC305E1EF8005ED5F801C8F800DD1CD57364
:20D10000FC009E738E739F738F739B738B73F800BFF803AF4FBE1F4FAE0F3A3C9EFEF6320E
:20D12000363E3C3623F80CAF8EAB2B8B3A2A2F8F3A28FF003042363C3E3830253F42FF0092
:20D1400037406072AB72BB72AF72BF72AEF0BED5D4B8F70D0A524541445920544F20534133
:20D1600056450D0A009F738F739E738E739B738B73F8FFABD4D33DF803BFF803BE2E3782EB
:20D180003085C0D2339E3A7D2F9F3A7AF801BEF883AE0E7360BB1E0EABF89EAE0EF5BBF8F1
:20D1A00003BEF800AE9BBFAFF6F6F6F6FC40BFD4A0478FFA0FFC40BFD4A0479BBF8BAFF699
:20D1C000F6F6F6FC40BFD4A0478FFA0FFC40BFD4A0473FD937D4C0D2339B3AE08BC2D209A4
:20D1E0002B4EBF9B738B739FABD4D33D6072ABF0BB9FAFF6F6F6F6FC40BFD4A0478FFA0F21
:20D20000FC40BFD4A047C0D1D2F800ABD4D33DC0D230F800ABD4D33DF800BBF807ABF800D0
:20D220005BF8D2BBF841AB4BBFD4A0479FCAD227D4A0716072AB72BB72AE72BE72AFF0BF54
:20D24000D50D0A505245535320414E59204B455920544F20434F4E54494E55450D0A00D411
:20D26000B8F70D0A524541445920544F204C4F41440D0A009F738F739E738E739B738B7327
:20D28000F8FFABD4D33DF800BBF807ABF8015BF801BB9BBEF883ABF89EAED4A0719FFEFE60
:20D2A000FEFEAFD4A0719FFA0F528FF4BF9F520EF45B1B9FBED4A0719FFEFEFEFEAFD4A03D
:20D2C000719FFA0F528FF4BF9F5BAEF803BBF800AB3FE137D3F800BBF807ABF8005BC0D333
:20D2E000109E3AE88EC2D33AD4A0719FFEFEFEFEAFD4A0719FFA0F528FF4BF9B738B739F0A
:20D30000ABD4D33D6072ABF0BB9F5B1B2EC0D2D1F801BBF89EAB0B52F883AB025B1BF811B7
:20D320005B02BBF80CABF8FF5B1B5B1BF8035B1BF8845B1BF80D5BC0D233C0D2129B738B7E
:19D3400052F800BBF808AB0B3A5372ABF0BB8B526422D572ABF0BB8BD564
:00D35901D3
